%YAML 1.1
%TAG !u! tag:unity3d.com,2011:
--- !u!21 &2100000
Material:
  serializedVersion: 6
  m_ObjectHideFlags: 0
  m_PrefabParentObject: {fileID: 0}
  m_PrefabInternal: {fileID: 0}
  m_Name: WispySkyboxMobileMat2
  m_Shader: {fileID: 10700, guid: 0000000000000000f000000000000000, type: 0}
  m_ShaderKeywords: 
  m_LightmapFlags: 5
  m_CustomRenderQueue: -1
  stringTagMap: {}
  m_SavedProperties:
    serializedVersion: 2
    m_TexEnvs:
    - first:
        name: _BackTex
      second:
        m_Texture: {fileID: 2800000, guid: 16c4243807886a04dbbcb777806c5b59, type: 3}
        m_Scale: {x: 1, y: 1}
        m_Offset: {x: 0, y: 0}
    - first:
        name: _DownTex
      second:
        m_Texture: {fileID: 2800000, guid: a33ce2b88e6af574ea30808871a61640, type: 3}
        m_Scale: {x: 1, y: 1}
        m_Offset: {x: 0, y: 0}
    - first:
        name: _FrontTex
      second:
        m_Texture: {fileID: 2800000, guid: 569c870bdaf96374f98aa4c7a05d3a57, type: 3}
        m_Scale: {x: 1, y: 1}
        m_Offset: {x: 0, y: 0}
    - first:
        name: _LeftTex
      second:
        m_Texture: {fileID: 2800000, guid: 569679e95ebdccf4e947af1359522a42, type: 3}
        m_Scale: {x: 1, y: 1}
        m_Offset: {x: 0, y: 0}
    - first:
        name: _MainTex
      second:
        m_Texture: {fileID: 0}
        m_Scale: {x: 1, y: 1}
        m_Offset: {x: 0, y: 0}
    - first:
        name: _RightTex
      second:
        m_Texture: {fileID: 2800000, guid: ea4a7f083ecb4b946bac3754cba78c49, type: 3}
        m_Scale: {x: 1, y: 1}
        m_Offset: {x: 0, y: 0}
    - first:
        name: _UpTex
      second:
        m_Texture: {fileID: 2800000, guid: 7046a0b4cc52e6e42b431fd577ba1de8, type: 3}
        m_Scale: {x: 1, y: 1}
        m_Offset: {x: 0, y: 0}
    m_Floats: []
    m_Colors:
    - first:
        name: _Color
      second: {r: 1, g: 1, b: 1, a: 1}
