{
  "items": [
    {
      "key": "main_menu_scene_title",
      "value": "Rabbit:"
    },
    {
      "key": "main_menu_scene_description_1",
      "value": "Tu Shopping de siempre"
    },
    {
      "key": "main_menu_scene_description_2",
      "value": "AUMENTADO"
    },
    {
      "key": "main_menu_scene_explore",
      "value": "Explorar"
    },
    {
      "key": "map_scene_friends",
      "value": "Amigos"
    },
    {
      "key": "map_scene_my_coupon",
      "value": "Mis Cupones"
    },
    {
      "key": "map_scene_config",
      "value": "Configuración"
    },
    {
      "key": "map_scene_auctions",
      "value": "Subastas"
    },
    {
      "key": "map_scene_camera",
      "value": "Cámara"
    },
    {
      "key": "map_scene_ar",
      "value": "Vidriera"
    },
    {
      "key": "map_scene_config_popup_title",
      "value": "Configuración"
    },
    {
      "key": "map_scene_pet_msg_welcome_1",
      "value": "Hola me llamo Puffy y seré tu asistente durante tu visita al shopping"
    },
    {
      "key": "map_scene_pet_msg_welcome_2",
      "value": "Si me necesitas solo debes llamarme. Te avisaré si veo cupones cerca…"
    },
    {
      "key": "cupon_detail_scene_exchange",
      "value": "Canjear"
    },
    {
      "key": "cupon_detail_scene_gift",
      "value": "Regalar"
    },
    {
      "key": "cupon_detail_scene_go_store",
      "value": "Ir al local"
    },
    {
      "key": "cupon_detail_scene_go_discard",
      "value": "Descartar"
    },
    {
      "key": "cupon_list_scene_title",
      "value": "Mis Cupones"
    },
    {
      "key": "default_cupon_cheeky_description",
      "value": "30% de descuento en cualquier producto hasta 1500 pesos de compra, solo por hoy."
    },
    {
      "key": "default_cupon_mimo_co_description",
      "value": "30% de descuento en cualquier producto hasta 1500 pesos de compra, solo por hoy."
    },
    {
      "key": "default_cupon_mc_donalds_description",
      "value": "Un Big Mac gratis con la compra de cualquier combo entre 16 y 19 hs."
    },
    {
      "key": "default_cupon_subway_description",
      "value": "Una gaseosa gratis con la compra de un sandwich antes de las 13 hs."
    },
    {
      "key": "default_cupon_freddo_description",
      "value": "2 x 1 cualquier hora del dia, solo por hoy."
    },
    {
      "key": "default_cupon_cafe_martinez_description",
      "value": "Una bebida caliente pidiendo una torta a elección, solo por hoy."
    },
    {
      "key": "default_cupon_bonafide_description",
      "value": "Happy hour de café todo el dia, solo por hoy."
    },
    {
      "key": "default_cupon_havanna_description",
      "value": "Te invitamos un café en nuestro local sin obligación de compra, solo por hoy."
    },
    {
      "key": "default_cupon_cher_description",
      "value": "30% de descuento en cualquier producto hasta 1500 pesos de compra, solo por hoy."
    },
    {
      "key": "default_cupon_ay_not_dead_description",
      "value": "30% de descuento en cualquier producto hasta 1500 pesos de compra, solo por hoy."
    },
    {
      "key": "default_cupon_rossi_caruso_description",
      "value": "30% de descuento en cualquier producto hasta 1500 pesos de compra, solo por hoy."
    },
    {
      "key": "map_scene_pet_msg_celebrate",
      "value": "Hay un cupon de descuento por ahi!  buscalo!"
    },
    {
      "key": "map_scene_config_popup_celebrate",
      "value": "Celebrar"
    },
    {
      "key": "map_scene_config_popup_change_character",
      "value": "Cambiar personaje"
    },
    {
      "key": "map_scene_config_popup_reset_app_state",
      "value": "Resetear estado"
    },
    {
      "key": "map_scene_config_popup_new_auction",
      "value": "nueva subasta"
    },
    {
      "key": "map_scene_config_popup_win_auction",
      "value": "ganar subasta"
    },
    {
      "key": "map_scene_go_to_store_popup_title",
      "value": "ir al negocio"
    },
    {
      "key": "map_scene_go_to_store_popup_go_button",
      "value": "Buscar"
    },
    {
      "key": "map_scene_go_to_store_popup_description",
      "value": "Ingresa el nombre del negocio que estas buscando!"
    },
    {
      "key": "map_scene_go_to_store_popup_default_store_name",
      "value": "Nombre..."
    },
    {
      "key": "map_scene_pet_msg_go_to_store",
      "value": "¿Quieres ir a {0}? ¡Sigueme!"
    },
    {
      "key": "pet_menu_find_store",
      "value": "Buscar un negocio"
    },
    {
      "key": "pet_menu_find_product",
      "value": "Buscar un producto"
    },
    {
      "key": "pet_menu_find_promo",
      "value": "Find a promo"
    },
    {
      "key": "pet_menu_find_friend",
      "value": "Find a friend"
    },
    {
      "key": "pet_menu_find_car",
      "value": "Back to the car"
    },
    {
      "key": "map_scene_pet_msg_new_auction",
      "value": "Hey there's a new auction at Akiabara, expiring in 30 minutes. You should take a look!"
    },
    {
      "key": "map_scene_pet_msg_win_auction",
      "value": "Congratulations: you won Akiabara's auction! Just go to the shop and take it, it's all yours during the next 30 minutes..."
    },
    {
      "key": "map_scene_pet_msg_cupon_congratulation",
      "value": "Congratulations! You got a discount coupon from {0}... pls check My Coupons for more details"
    },
    {
      "key": "catch_cupon_popup_msg",
      "value": "Look for the coupon around you and drag it to the basket to catch it!"
    },
    {
      "key": "use_cupon_popup_msg",
      "value": "Show this code to the salesman to use your discount"
    },
    {
      "key": "map_scene_config_popup_set_go_store",
      "value": "Set Go Point"
    },
    {
      "key": "map_scene_config_popup_enable_ips",
      "value": "IPS"
    },
    {
      "key": "map_scene_ips_config_popup_title",
      "value": "IPS Settings"
    },
    {
      "key": "map_scene_ips_config_popup_enable",
      "value": "Enable IPS"
    },
    {
      "key": "map_scene_ips_config_popup_method",
      "value": "Change IPS Method"
    },
    {
      "key": "map_scene_ips_config_popup_knn_k",
      "value": "Change K"
    },
    {
      "key": "map_scene_ips_config_popup_no_rss",
      "value": "Change NoRss"
    },
    {
      "key": "map_scene_ips_config_popup_horizontal_var",
      "value": "Change horizontal var"
    },
    {
      "key": "map_scene_ips_config_popup_vertical_var",
      "value": "Change vertical var"
    },
    {
      "key": "map_scene_ips_config_popup_kalman_enable",
      "value": "Enable/Disable Kalman"
    },
    {
      "key": "map_scene_ips_config_popup_kalman_horizontal_var",
      "value": "Change horizontal vel var"
    },
    {
      "key": "map_scene_ips_config_popup_kalman_vertical_var",
      "value": "Change vertical vel var"
    },
    {
      "key": "log_in_menu_scene_title",
      "value": "Login"
    },
    {
      "key": "log_in_menu_scene_description",
      "value": "Connect rabbit with facebook to receive exclusive discounts!"
    },
    {
      "key": "log_in_menu_connect",
      "value": "Login"
    },
    {
      "key": "log_in_menu_retry",
      "value": "Retry"
    },
    {
      "key": "log_in_menu_logout",
      "value": "Logout"
    }
  ]
}